Final Assignment
…
head(ppt_5_extracted)

  id ppt_01 ppt_02 ppt_03 ppt_04 ppt_05
1  1 0.0000      0      0 0.6990      0
2  1 0.0000      0      0 0.7103      0
3  1 0.0000      0      0 1.0457      0
4  1 0.0095      0      0 0.6740      0
5  1 0.0000      0      0 0.6578      0
6  1 0.0000      0      0 0.7521      0

Now, calculate the mean of of the precipitation values for each of the counties each day and name it ppt_5_mean. [Hint: use dplyr::group_by() and summarize()]

Here is what the summarized numbers look like:

# A tibble: 100 × 6
      id  ppt_01 ppt_02 ppt_03 ppt_04 ppt_05
   <dbl>   <dbl>  <dbl>  <dbl>  <dbl>  <dbl>
 1     1 0.00218 0           0  0.174      0
 2     2 0       0           0  0          0
 3     3 0       0           0  0          0
 4     4 0       0.542       0  4.25       0
 5     5 0       0           0  0.322      0
 6     6 0       0.0190      0  1.76       0
 7     7 0       1.08        0  4.61       0
 8     8 0       0.489       0  3.51       0
 9     9 0       0           0  0.128      0
10    10 0       0           0  0          0
# ℹ 90 more rows
…
